\relax 
\providecommand\hyper@newdestlabel[2]{}
\providecommand\HyperFirstAtBeginDocument{\AtBeginDocument}
\HyperFirstAtBeginDocument{\ifx\hyper@anchor\@undefined
\global\let\oldcontentsline\contentsline
\gdef\contentsline#1#2#3#4{\oldcontentsline{#1}{#2}{#3}}
\global\let\oldnewlabel\newlabel
\gdef\newlabel#1#2{\newlabelxx{#1}#2}
\gdef\newlabelxx#1#2#3#4#5#6{\oldnewlabel{#1}{{#2}{#3}}}
\AtEndDocument{\ifx\hyper@anchor\@undefined
\let\contentsline\oldcontentsline
\let\newlabel\oldnewlabel
\fi}
\fi}
\global\let\hyper@last\relax 
\gdef\HyperFirstAtBeginDocument#1{#1}
\providecommand\HyField@AuxAddToFields[1]{}
\providecommand\HyField@AuxAddToCoFields[2]{}
\select@language{english}
\@writefile{toc}{\select@language{english}}
\@writefile{lof}{\select@language{english}}
\@writefile{lot}{\select@language{english}}
\citation{gamma}
\@writefile{toc}{\contentsline {section}{\numberline {1}Tests}{2}{section.1}}
\@writefile{toc}{\contentsline {subsection}{\numberline {1.1}Tetrahedron}{2}{subsection.1.1}}
\providecommand*\caption@xref[2]{\@setref\relax\@undefined{#1}}
\newlabel{fig:TA}{{1a}{2}{Test A\relax }{figure.caption.1}{}}
\newlabel{sub@fig:TA}{{a}{2}{Test A\relax }{figure.caption.1}{}}
\newlabel{fig:TB}{{1b}{2}{Test B\relax }{figure.caption.1}{}}
\newlabel{sub@fig:TB}{{b}{2}{Test B\relax }{figure.caption.1}{}}
\newlabel{fig:TC}{{1c}{2}{Test C\relax }{figure.caption.1}{}}
\newlabel{sub@fig:TC}{{c}{2}{Test C\relax }{figure.caption.1}{}}
\newlabel{fig:TD}{{1d}{2}{Test D\relax }{figure.caption.1}{}}
\newlabel{sub@fig:TD}{{d}{2}{Test D\relax }{figure.caption.1}{}}
\@writefile{toc}{\contentsline {subsection}{\numberline {1.2}Pyramid}{2}{subsection.1.2}}
\@writefile{lof}{\contentsline {figure}{\numberline {2}{\ignorespaces Comparison plot of quality versus height for test A of the tetrahedron.\relax }}{3}{figure.caption.2}}
\newlabel{fig:TAR}{{2}{3}{Comparison plot of quality versus height for test A of the tetrahedron.\relax }{figure.caption.2}{}}
\@writefile{lof}{\contentsline {figure}{\numberline {3}{\ignorespaces Comparison plot of quality versus distance for test B of the tetrahedron.\relax }}{3}{figure.caption.3}}
\newlabel{fig:TBR}{{3}{3}{Comparison plot of quality versus distance for test B of the tetrahedron.\relax }{figure.caption.3}{}}
\@writefile{lof}{\contentsline {figure}{\numberline {4}{\ignorespaces Comparison plot of quality versus angle of rotation for test C of the tetrahedron.\relax }}{4}{figure.caption.4}}
\newlabel{fig:TCR}{{4}{4}{Comparison plot of quality versus angle of rotation for test C of the tetrahedron.\relax }{figure.caption.4}{}}
\@writefile{lof}{\contentsline {figure}{\numberline {5}{\ignorespaces Comparison plot of quality versus angle of rotation for test D of the tetrahedron.\relax }}{4}{figure.caption.5}}
\newlabel{fig:TDR}{{5}{4}{Comparison plot of quality versus angle of rotation for test D of the tetrahedron.\relax }{figure.caption.5}{}}
\newlabel{fig:PA}{{6a}{5}{Test A\relax }{figure.caption.6}{}}
\newlabel{sub@fig:PA}{{a}{5}{Test A\relax }{figure.caption.6}{}}
\newlabel{fig:PB}{{6b}{5}{Test B\relax }{figure.caption.6}{}}
\newlabel{sub@fig:PB}{{b}{5}{Test B\relax }{figure.caption.6}{}}
\newlabel{fig:PC}{{6c}{5}{Test C\relax }{figure.caption.6}{}}
\newlabel{sub@fig:PC}{{c}{5}{Test C\relax }{figure.caption.6}{}}
\newlabel{fig:PD}{{6d}{5}{Test D\relax }{figure.caption.6}{}}
\newlabel{sub@fig:PD}{{d}{5}{Test D\relax }{figure.caption.6}{}}
\newlabel{fig:PE}{{6e}{5}{Test E\relax }{figure.caption.6}{}}
\newlabel{sub@fig:PE}{{e}{5}{Test E\relax }{figure.caption.6}{}}
\newlabel{fig:PF}{{6f}{5}{Test F\relax }{figure.caption.6}{}}
\newlabel{sub@fig:PF}{{f}{5}{Test F\relax }{figure.caption.6}{}}
\newlabel{fig:PG}{{6g}{5}{Test G\relax }{figure.caption.6}{}}
\newlabel{sub@fig:PG}{{g}{5}{Test G\relax }{figure.caption.6}{}}
\@writefile{lof}{\contentsline {figure}{\numberline {6}{\ignorespaces Pruebas para la Pir\IeC {\'a}mide.\relax }}{5}{figure.caption.6}}
\newlabel{fig:pyramid}{{6}{5}{Pruebas para la Pirámide.\relax }{figure.caption.6}{}}
\@writefile{lof}{\contentsline {figure}{\numberline {7}{\ignorespaces Comparison plot of quality versus angle of rotation for test A of the pyramid.\relax }}{6}{figure.caption.7}}
\newlabel{fig:PAR}{{7}{6}{Comparison plot of quality versus angle of rotation for test A of the pyramid.\relax }{figure.caption.7}{}}
\@writefile{lof}{\contentsline {figure}{\numberline {8}{\ignorespaces Comparison plot of quality versus angle of rotation for test B of the pyramid.\relax }}{6}{figure.caption.8}}
\newlabel{fig:PBR}{{8}{6}{Comparison plot of quality versus angle of rotation for test B of the pyramid.\relax }{figure.caption.8}{}}
\@writefile{lof}{\contentsline {figure}{\numberline {9}{\ignorespaces Comparison plot of quality versus height for test C of the pyramid.\relax }}{7}{figure.caption.9}}
\newlabel{fig:PCR}{{9}{7}{Comparison plot of quality versus height for test C of the pyramid.\relax }{figure.caption.9}{}}
\@writefile{lof}{\contentsline {figure}{\numberline {10}{\ignorespaces Comparison plot of quality versus the distance to de base center for test D of the pyramid.\relax }}{7}{figure.caption.10}}
\newlabel{fig:PDR}{{10}{7}{Comparison plot of quality versus the distance to de base center for test D of the pyramid.\relax }{figure.caption.10}{}}
\@writefile{lof}{\contentsline {figure}{\numberline {11}{\ignorespaces Comparison plot of quality versus distance for test E of the pyramid.\relax }}{8}{figure.caption.11}}
\newlabel{fig:PER}{{11}{8}{Comparison plot of quality versus distance for test E of the pyramid.\relax }{figure.caption.11}{}}
\@writefile{toc}{\contentsline {subsection}{\numberline {1.3}Prism}{8}{subsection.1.3}}
\@writefile{lof}{\contentsline {figure}{\numberline {12}{\ignorespaces Comparison plot of quality versus distance for test F of the pyramid.\relax }}{9}{figure.caption.12}}
\newlabel{fig:PFR}{{12}{9}{Comparison plot of quality versus distance for test F of the pyramid.\relax }{figure.caption.12}{}}
\@writefile{lof}{\contentsline {figure}{\numberline {13}{\ignorespaces Comparison plot of quality versus distance to de basal face center for test G of the pyramid.\relax }}{9}{figure.caption.13}}
\newlabel{fig:PGR}{{13}{9}{Comparison plot of quality versus distance to de basal face center for test G of the pyramid.\relax }{figure.caption.13}{}}
\newlabel{fig:RA}{{14a}{10}{Test A\relax }{figure.caption.14}{}}
\newlabel{sub@fig:RA}{{a}{10}{Test A\relax }{figure.caption.14}{}}
\newlabel{fig:RB}{{14b}{10}{Test B\relax }{figure.caption.14}{}}
\newlabel{sub@fig:RB}{{b}{10}{Test B\relax }{figure.caption.14}{}}
\newlabel{fig:RC}{{14c}{10}{Test C\relax }{figure.caption.14}{}}
\newlabel{sub@fig:RC}{{c}{10}{Test C\relax }{figure.caption.14}{}}
\newlabel{fig:RD}{{14d}{10}{Test D\relax }{figure.caption.14}{}}
\newlabel{sub@fig:RD}{{d}{10}{Test D\relax }{figure.caption.14}{}}
\newlabel{fig:RE}{{14e}{10}{Test E\relax }{figure.caption.14}{}}
\newlabel{sub@fig:RE}{{e}{10}{Test E\relax }{figure.caption.14}{}}
\newlabel{fig:RF}{{14f}{10}{Test F\relax }{figure.caption.14}{}}
\newlabel{sub@fig:RF}{{f}{10}{Test F\relax }{figure.caption.14}{}}
\newlabel{fig:RG}{{14g}{10}{Test G\relax }{figure.caption.14}{}}
\newlabel{sub@fig:RG}{{g}{10}{Test G\relax }{figure.caption.14}{}}
\@writefile{lof}{\contentsline {figure}{\numberline {15}{\ignorespaces Comparison plot of quality versus angle of rotation for test A of the prism.\relax }}{11}{figure.caption.15}}
\newlabel{fig:RAR}{{15}{11}{Comparison plot of quality versus angle of rotation for test A of the prism.\relax }{figure.caption.15}{}}
\@writefile{lof}{\contentsline {figure}{\numberline {16}{\ignorespaces Comparison plot of quality versus angle of rotation for test B of the prism.\relax }}{11}{figure.caption.16}}
\newlabel{fig:RBR}{{16}{11}{Comparison plot of quality versus angle of rotation for test B of the prism.\relax }{figure.caption.16}{}}
\@writefile{lof}{\contentsline {figure}{\numberline {17}{\ignorespaces Comparison plot of quality versus distance for test C of the prism.\relax }}{12}{figure.caption.17}}
\newlabel{fig:RCR}{{17}{12}{Comparison plot of quality versus distance for test C of the prism.\relax }{figure.caption.17}{}}
\@writefile{lof}{\contentsline {figure}{\numberline {18}{\ignorespaces Comparison plot of quality versus distance for test D of the prism.\relax }}{12}{figure.caption.18}}
\newlabel{fig:RDR}{{18}{12}{Comparison plot of quality versus distance for test D of the prism.\relax }{figure.caption.18}{}}
\@writefile{lof}{\contentsline {figure}{\numberline {19}{\ignorespaces Comparison plot of quality versus height for test E of the prism.\relax }}{13}{figure.caption.19}}
\newlabel{fig:RER}{{19}{13}{Comparison plot of quality versus height for test E of the prism.\relax }{figure.caption.19}{}}
\@writefile{lof}{\contentsline {figure}{\numberline {20}{\ignorespaces Comparison plot of quality versus height for test F of the prism.\relax }}{13}{figure.caption.20}}
\newlabel{fig:RFR}{{20}{13}{Comparison plot of quality versus height for test F of the prism.\relax }{figure.caption.20}{}}
\bibstyle{ieeetr}
\bibdata{bibliografia}
\bibcite{gamma}{1}
\@writefile{lof}{\contentsline {figure}{\numberline {21}{\ignorespaces Comparison plot of quality versus distance for test G of the prism.\relax }}{14}{figure.caption.21}}
\newlabel{fig:RGR}{{21}{14}{Comparison plot of quality versus distance for test G of the prism.\relax }{figure.caption.21}{}}
